<?xml version="1.0" encoding="utf-8"?>
<!-- Generator: Adobe Illustrator 21.0.0, SVG Export Plug-In . SVG Version: 6.00 Build 0)  -->
<svg version="1.1" id="Layer_1" xmlns="http://www.w3.org/2000/svg" xmlns:xlink="http://www.w3.org/1999/xlink" x="0px" y="0px"
	 viewBox="0 0 191.2 36.6" style="enable-background:new 0 0 191.2 36.6;" xml:space="preserve">
<style type="text/css">
	.st0{fill-rule:evenodd;clip-rule:evenodd;fill:#93B558;}
</style>
<g>
	<path class="st0" d="M182.7,0.3c0.7,0,1.5,0.2,2.2,0.6c0.7,0.4,1.2,0.9,1.6,1.6c0.4,0.7,0.6,1.4,0.6,2.2c0,0.8-0.2,1.5-0.6,2.2
		c-0.4,0.7-0.9,1.2-1.6,1.6c-0.7,0.4-1.4,0.6-2.2,0.6s-1.5-0.2-2.2-0.6c-0.7-0.4-1.2-0.9-1.6-1.6c-0.4-0.7-0.6-1.4-0.6-2.2
		c0-0.8,0.2-1.5,0.6-2.2c0.4-0.7,0.9-1.2,1.6-1.6C181.2,0.5,182,0.3,182.7,0.3L182.7,0.3z M182.7,1.1c-0.6,0-1.2,0.2-1.8,0.5
		c-0.6,0.3-1,0.8-1.4,1.4c-0.3,0.6-0.5,1.2-0.5,1.8c0,0.6,0.2,1.2,0.5,1.8s0.8,1,1.4,1.4c0.6,0.3,1.2,0.5,1.8,0.5
		c0.6,0,1.2-0.2,1.8-0.5c0.6-0.3,1-0.8,1.4-1.4s0.5-1.2,0.5-1.8c0-0.6-0.2-1.2-0.5-1.8c-0.3-0.6-0.8-1-1.4-1.4
		C183.9,1.2,183.3,1.1,182.7,1.1L182.7,1.1z M180.8,7.2V2.4h1.6c0.6,0,1,0,1.2,0.1c0.2,0.1,0.4,0.2,0.6,0.5c0.1,0.2,0.2,0.4,0.2,0.7
		c0,0.3-0.1,0.6-0.4,0.9c-0.2,0.3-0.6,0.4-1,0.4c0.2,0.1,0.3,0.2,0.4,0.3c0.2,0.2,0.4,0.5,0.7,0.9l0.6,0.9h-0.9l-0.4-0.7
		c-0.3-0.6-0.6-1-0.8-1.1c-0.1-0.1-0.3-0.2-0.6-0.2h-0.4v2H180.8L180.8,7.2z M181.5,4.5h0.9c0.4,0,0.7-0.1,0.9-0.2
		c0.2-0.1,0.2-0.3,0.2-0.5c0-0.1,0-0.3-0.1-0.4c-0.1-0.1-0.2-0.2-0.3-0.2c-0.1-0.1-0.4-0.1-0.8-0.1h-0.9V4.5L181.5,4.5z"/>
	<path class="st0" d="M98,0.1h0.1v10.1H88V0.1H98L98,0.1z M53.6,21.4l23.6,1.5c1,0,1.8,0.8,1.8,1.8v0c0,1-0.8,1.8-1.8,1.8H43.6V13.3
		C44.6,17.3,48.2,20.7,53.6,21.4L53.6,21.4z M43.6,36.6H78c5,0,9.2-3.6,10.1-8.4c0.8,4.7,5,8.4,9.9,8.4h22c4.9,0,9-3.6,9.9-8.2v8.2
		h35.2c5.7,0,10.3-4.7,10.3-10.3v-1.5c0-5.7-4.7-10.3-10.3-10.3l-1.9-0.1c-11-0.5-21.9-1-32.8-1.6c0.9,4.3,4.5,7.9,10.1,8.6
		l23.9,1.5c1,0,1.8,0.8,1.8,1.8v0c0,1-0.8,1.8-1.8,1.8H130V12.8l-10.2-0.5v11.7c0,1.6-1.3,3-3,3h-15.7c-1.6,0-3-1.3-3-3V11.1
		L88,10.6v11.6c-1.2-4.4-5.2-7.6-10-7.6l-44.9-2.9v24.9h9.7H43.6L43.6,36.6z M86.4,10.2V0H53.6c-4.8,0-8.9,3.4-10,7.9V0.1H24.1
		l-6.7,10.1h25.9L86.4,10.2L86.4,10.2z M28.7,11.4L12.6,36.6H0l17-25.8L28.7,11.4L28.7,11.4z M175.4,10.2V0h-34.9
		c-5.6,0-10.2,4.5-10.3,10.1L175.4,10.2L175.4,10.2z M119.8,10.1V0.1h0.1H130v10.1H119.8L119.8,10.1z"/>
</g>
</svg>
